# This file uses centimeters as units for non-parametric coordinates.

mtllib Bola3.mtl
g default
v 0.148778 -0.987688 -0.048341
v 0.126558 -0.987688 -0.091950
v 0.091950 -0.987688 -0.126558
v 0.048341 -0.987688 -0.148778
v 0.000000 -0.987688 -0.156435
v -0.048341 -0.987688 -0.148778
v -0.091950 -0.987688 -0.126558
v -0.126558 -0.987688 -0.091950
v -0.148778 -0.987688 -0.048341
v -0.156435 -0.987688 0.000000
v -0.148778 -0.987688 0.048341
v -0.126558 -0.987688 0.091950
v -0.091950 -0.987688 0.126558
v -0.048341 -0.987688 0.148778
v -0.000000 -0.987688 0.156434
v 0.048341 -0.987688 0.148778
v 0.091950 -0.987688 0.126558
v 0.126558 -0.987688 0.091950
v 0.148778 -0.987688 0.048341
v 0.156434 -0.987688 0.000000
v 0.293893 -0.951057 -0.095492
v 0.250000 -0.951057 -0.181636
v 0.181636 -0.951057 -0.250000
v 0.095492 -0.951057 -0.293893
v 0.000000 -0.951057 -0.309017
v -0.095492 -0.951057 -0.293893
v -0.181636 -0.951057 -0.250000
v -0.250000 -0.951057 -0.181636
v -0.293893 -0.951057 -0.095492
v -0.309017 -0.951057 0.000000
v -0.293893 -0.951057 0.095492
v -0.250000 -0.951057 0.181636
v -0.181636 -0.951057 0.250000
v -0.095492 -0.951057 0.293893
v -0.000000 -0.951057 0.309017
v 0.095491 -0.951057 0.293893
v 0.181636 -0.951057 0.250000
v 0.250000 -0.951057 0.181636
v 0.293893 -0.951057 0.095492
v 0.309017 -0.951057 0.000000
v 0.431771 -0.891007 -0.140291
v 0.367286 -0.891007 -0.266849
v 0.266849 -0.891007 -0.367286
v 0.140291 -0.891007 -0.431771
v 0.000000 -0.891007 -0.453991
v -0.140291 -0.891007 -0.431771
v -0.266849 -0.891007 -0.367286
v -0.367286 -0.891007 -0.266849
v -0.431771 -0.891007 -0.140291
v -0.453991 -0.891007 0.000000
v -0.431771 -0.891007 0.140291
v -0.367286 -0.891007 0.266849
v -0.266849 -0.891007 0.367286
v -0.140291 -0.891007 0.431771
v -0.000000 -0.891007 0.453991
v 0.140291 -0.891007 0.431771
v 0.266849 -0.891007 0.367286
v 0.367286 -0.891007 0.266849
v 0.431771 -0.891007 0.140291
v 0.453991 -0.891007 0.000000
v 0.559017 -0.809017 -0.181636
v 0.475529 -0.809017 -0.345492
v 0.345492 -0.809017 -0.475529
v 0.181636 -0.809017 -0.559017
v 0.000000 -0.809017 -0.587786
v -0.181636 -0.809017 -0.559017
v -0.345492 -0.809017 -0.475528
v -0.475528 -0.809017 -0.345492
v -0.559017 -0.809017 -0.181636
v -0.587785 -0.809017 0.000000
v -0.559017 -0.809017 0.181636
v -0.475528 -0.809017 0.345492
v -0.345492 -0.809017 0.475528
v -0.181636 -0.809017 0.559017
v -0.000000 -0.809017 0.587785
v 0.181636 -0.809017 0.559017
v 0.345491 -0.809017 0.475528
v 0.475528 -0.809017 0.345492
v 0.559017 -0.809017 0.181636
v 0.587785 -0.809017 0.000000
v 0.672499 -0.707107 -0.218508
v 0.572062 -0.707107 -0.415627
v 0.415627 -0.707107 -0.572062
v 0.218508 -0.707107 -0.672499
v 0.000000 -0.707107 -0.707107
v -0.218508 -0.707107 -0.672499
v -0.415627 -0.707107 -0.572062
v -0.572062 -0.707107 -0.415627
v -0.672499 -0.707107 -0.218508
v -0.707107 -0.707107 0.000000
v -0.672499 -0.707107 0.218508
v -0.572062 -0.707107 0.415627
v -0.415627 -0.707107 0.572061
v -0.218508 -0.707107 0.672499
v -0.000000 -0.707107 0.707107
v 0.218508 -0.707107 0.672499
v 0.415627 -0.707107 0.572061
v 0.572061 -0.707107 0.415627
v 0.672499 -0.707107 0.218508
v 0.707107 -0.707107 0.000000
v 0.769421 -0.587785 -0.250000
v 0.654509 -0.587785 -0.475529
v 0.475529 -0.587785 -0.654509
v 0.250000 -0.587785 -0.769421
v 0.000000 -0.587785 -0.809017
v -0.250000 -0.587785 -0.769421
v -0.475528 -0.587785 -0.654509
v -0.654509 -0.587785 -0.475528
v -0.769421 -0.587785 -0.250000
v -0.809017 -0.587785 0.000000
v -0.769421 -0.587785 0.250000
v -0.654509 -0.587785 0.475528
v -0.475528 -0.587785 0.654509
v -0.250000 -0.587785 0.769421
v -0.000000 -0.587785 0.809017
v 0.250000 -0.587785 0.769421
v 0.475528 -0.587785 0.654509
v 0.654509 -0.587785 0.475528
v 0.769421 -0.587785 0.250000
v 0.809017 -0.587785 0.000000
v 0.847398 -0.453991 -0.275336
v 0.720840 -0.453991 -0.523721
v 0.523721 -0.453991 -0.720840
v 0.275336 -0.453991 -0.847398
v 0.000000 -0.453991 -0.891007
v -0.275336 -0.453991 -0.847398
v -0.523721 -0.453991 -0.720840
v -0.720840 -0.453991 -0.523721
v -0.847398 -0.453991 -0.275336
v -0.891007 -0.453991 0.000000
v -0.847398 -0.453991 0.275336
v -0.720840 -0.453991 0.523721
v -0.523721 -0.453991 0.720840
v -0.275336 -0.453991 0.847398
v -0.000000 -0.453991 0.891007
v 0.275336 -0.453991 0.847398
v 0.523721 -0.453991 0.720840
v 0.720839 -0.453991 0.523721
v 0.847398 -0.453991 0.275336
v 0.891007 -0.453991 0.000000
v 0.904509 -0.309017 -0.293893
v 0.769421 -0.309017 -0.559017
v 0.559017 -0.309017 -0.769421
v 0.293893 -0.309017 -0.904509
v 0.000000 -0.309017 -0.951057
v -0.293893 -0.309017 -0.904509
v -0.559017 -0.309017 -0.769421
v -0.769421 -0.309017 -0.559017
v -0.904509 -0.309017 -0.293893
v -0.951057 -0.309017 0.000000
v -0.904509 -0.309017 0.293893
v -0.769421 -0.309017 0.559017
v -0.559017 -0.309017 0.769421
v -0.293893 -0.309017 0.904509
v -0.000000 -0.309017 0.951057
v 0.293893 -0.309017 0.904509
v 0.559017 -0.309017 0.769421
v 0.769421 -0.309017 0.559017
v 0.904509 -0.309017 0.293893
v 0.951057 -0.309017 0.000000
v 0.939348 -0.156434 -0.305213
v 0.799057 -0.156434 -0.580549
v 0.580549 -0.156434 -0.799057
v 0.305213 -0.156434 -0.939348
v 0.000000 -0.156434 -0.987689
v -0.305213 -0.156434 -0.939348
v -0.580549 -0.156434 -0.799057
v -0.799057 -0.156434 -0.580549
v -0.939348 -0.156434 -0.305213
v -0.987689 -0.156434 0.000000
v -0.939348 -0.156434 0.305213
v -0.799057 -0.156434 0.580549
v -0.580549 -0.156434 0.799057
v -0.305213 -0.156434 0.939348
v -0.000000 -0.156434 0.987688
v 0.305212 -0.156434 0.939348
v 0.580549 -0.156434 0.799057
v 0.799057 -0.156434 0.580549
v 0.939348 -0.156434 0.305212
v 0.987688 -0.156434 0.000000
v 0.951057 0.000000 -0.309017
v 0.809018 0.000000 -0.587786
v 0.587786 0.000000 -0.809017
v 0.309017 0.000000 -0.951057
v 0.000000 0.000000 -1.000000
v -0.309017 0.000000 -0.951057
v -0.587785 0.000000 -0.809017
v -0.809017 0.000000 -0.587785
v -0.951057 0.000000 -0.309017
v -1.000000 0.000000 0.000000
v -0.951057 0.000000 0.309017
v -0.809017 0.000000 0.587785
v -0.587785 0.000000 0.809017
v -0.309017 0.000000 0.951057
v -0.000000 0.000000 1.000000
v 0.309017 0.000000 0.951057
v 0.587785 0.000000 0.809017
v 0.809017 0.000000 0.587785
v 0.951057 0.000000 0.309017
v 1.000000 0.000000 0.000000
v 0.939348 0.156434 -0.305213
v 0.799057 0.156434 -0.580549
v 0.580549 0.156434 -0.799057
v 0.305213 0.156434 -0.939348
v 0.000000 0.156434 -0.987689
v -0.305213 0.156434 -0.939348
v -0.580549 0.156434 -0.799057
v -0.799057 0.156434 -0.580549
v -0.939348 0.156434 -0.305213
v -0.987689 0.156434 0.000000
v -0.939348 0.156434 0.305213
v -0.799057 0.156434 0.580549
v -0.580549 0.156434 0.799057
v -0.305213 0.156434 0.939348
v -0.000000 0.156434 0.987688
v 0.305212 0.156434 0.939348
v 0.580549 0.156434 0.799057
v 0.799057 0.156434 0.580549
v 0.939348 0.156434 0.305212
v 0.987688 0.156434 0.000000
v 0.904509 0.309017 -0.293893
v 0.769421 0.309017 -0.559017
v 0.559017 0.309017 -0.769421
v 0.293893 0.309017 -0.904509
v 0.000000 0.309017 -0.951057
v -0.293893 0.309017 -0.904509
v -0.559017 0.309017 -0.769421
v -0.769421 0.309017 -0.559017
v -0.904509 0.309017 -0.293893
v -0.951057 0.309017 0.000000
v -0.904509 0.309017 0.293893
v -0.769421 0.309017 0.559017
v -0.559017 0.309017 0.769421
v -0.293893 0.309017 0.904509
v -0.000000 0.309017 0.951057
v 0.293893 0.309017 0.904509
v 0.559017 0.309017 0.769421
v 0.769421 0.309017 0.559017
v 0.904509 0.309017 0.293893
v 0.951057 0.309017 0.000000
v 0.847398 0.453991 -0.275336
v 0.720840 0.453991 -0.523721
v 0.523721 0.453991 -0.720840
v 0.275336 0.453991 -0.847398
v 0.000000 0.453991 -0.891007
v -0.275336 0.453991 -0.847398
v -0.523721 0.453991 -0.720840
v -0.720840 0.453991 -0.523721
v -0.847398 0.453991 -0.275336
v -0.891007 0.453991 0.000000
v -0.847398 0.453991 0.275336
v -0.720840 0.453991 0.523721
v -0.523721 0.453991 0.720840
v -0.275336 0.453991 0.847398
v -0.000000 0.453991 0.891007
v 0.275336 0.453991 0.847398
v 0.523721 0.453991 0.720840
v 0.720839 0.453991 0.523721
v 0.847398 0.453991 0.275336
v 0.891007 0.453991 0.000000
v 0.769421 0.587785 -0.250000
v 0.654509 0.587785 -0.475529
v 0.475529 0.587785 -0.654509
v 0.250000 0.587785 -0.769421
v 0.000000 0.587785 -0.809017
v -0.250000 0.587785 -0.769421
v -0.475528 0.587785 -0.654509
v -0.654509 0.587785 -0.475528
v -0.769421 0.587785 -0.250000
v -0.809017 0.587785 0.000000
v -0.769421 0.587785 0.250000
v -0.654509 0.587785 0.475528
v -0.475528 0.587785 0.654509
v -0.250000 0.587785 0.769421
v -0.000000 0.587785 0.809017
v 0.250000 0.587785 0.769421
v 0.475528 0.587785 0.654509
v 0.654509 0.587785 0.475528
v 0.769421 0.587785 0.250000
v 0.809017 0.587785 0.000000
v 0.672499 0.707107 -0.218508
v 0.572062 0.707107 -0.415627
v 0.415627 0.707107 -0.572062
v 0.218508 0.707107 -0.672499
v 0.000000 0.707107 -0.707107
v -0.218508 0.707107 -0.672499
v -0.415627 0.707107 -0.572062
v -0.572062 0.707107 -0.415627
v -0.672499 0.707107 -0.218508
v -0.707107 0.707107 0.000000
v -0.672499 0.707107 0.218508
v -0.572062 0.707107 0.415627
v -0.415627 0.707107 0.572061
v -0.218508 0.707107 0.672499
v -0.000000 0.707107 0.707107
v 0.218508 0.707107 0.672499
v 0.415627 0.707107 0.572061
v 0.572061 0.707107 0.415627
v 0.672499 0.707107 0.218508
v 0.707107 0.707107 0.000000
v 0.559017 0.809017 -0.181636
v 0.475529 0.809017 -0.345492
v 0.345492 0.809017 -0.475529
v 0.181636 0.809017 -0.559017
v 0.000000 0.809017 -0.587786
v -0.181636 0.809017 -0.559017
v -0.345492 0.809017 -0.475528
v -0.475528 0.809017 -0.345492
v -0.559017 0.809017 -0.181636
v -0.587785 0.809017 0.000000
v -0.559017 0.809017 0.181636
v -0.475528 0.809017 0.345492
v -0.345492 0.809017 0.475528
v -0.181636 0.809017 0.559017
v -0.000000 0.809017 0.587785
v 0.181636 0.809017 0.559017
v 0.345491 0.809017 0.475528
v 0.475528 0.809017 0.345492
v 0.559017 0.809017 0.181636
v 0.587785 0.809017 0.000000
v 0.431771 0.891007 -0.140291
v 0.367286 0.891007 -0.266849
v 0.266849 0.891007 -0.367286
v 0.140291 0.891007 -0.431771
v 0.000000 0.891007 -0.453991
v -0.140291 0.891007 -0.431771
v -0.266849 0.891007 -0.367286
v -0.367286 0.891007 -0.266849
v -0.431771 0.891007 -0.140291
v -0.453991 0.891007 0.000000
v -0.431771 0.891007 0.140291
v -0.367286 0.891007 0.266849
v -0.266849 0.891007 0.367286
v -0.140291 0.891007 0.431771
v -0.000000 0.891007 0.453991
v 0.140291 0.891007 0.431771
v 0.266849 0.891007 0.367286
v 0.367286 0.891007 0.266849
v 0.431771 0.891007 0.140291
v 0.453991 0.891007 0.000000
v 0.293893 0.951057 -0.095492
v 0.250000 0.951057 -0.181636
v 0.181636 0.951057 -0.250000
v 0.095492 0.951057 -0.293893
v 0.000000 0.951057 -0.309017
v -0.095492 0.951057 -0.293893
v -0.181636 0.951057 -0.250000
v -0.250000 0.951057 -0.181636
v -0.293893 0.951057 -0.095492
v -0.309017 0.951057 0.000000
v -0.293893 0.951057 0.095492
v -0.250000 0.951057 0.181636
v -0.181636 0.951057 0.250000
v -0.095492 0.951057 0.293893
v -0.000000 0.951057 0.309017
v 0.095491 0.951057 0.293893
v 0.181636 0.951057 0.250000
v 0.250000 0.951057 0.181636
v 0.293893 0.951057 0.095492
v 0.309017 0.951057 0.000000
v 0.148778 0.987688 -0.048341
v 0.126558 0.987688 -0.091950
v 0.091950 0.987688 -0.126558
v 0.048341 0.987688 -0.148778
v 0.000000 0.987688 -0.156435
v -0.048341 0.987688 -0.148778
v -0.091950 0.987688 -0.126558
v -0.126558 0.987688 -0.091950
v -0.148778 0.987688 -0.048341
v -0.156435 0.987688 0.000000
v -0.148778 0.987688 0.048341
v -0.126558 0.987688 0.091950
v -0.091950 0.987688 0.126558
v -0.048341 0.987688 0.148778
v -0.000000 0.987688 0.156434
v 0.048341 0.987688 0.148778
v 0.091950 0.987688 0.126558
v 0.126558 0.987688 0.091950
v 0.148778 0.987688 0.048341
v 0.156434 0.987688 0.000000
v 0.000000 -1.000000 0.000000
v 0.000000 1.000000 0.000000
vt 0.574389 0.524170
vt 0.563279 0.545975
vt 0.625000 0.590818
vt 0.646947 0.547746
vt 0.545975 0.563279
vt 0.590818 0.625000
vt 0.524171 0.574389
vt 0.547746 0.646946
vt 0.500000 0.578217
vt 0.500000 0.654508
vt 0.475830 0.574389
vt 0.452254 0.646946
vt 0.454025 0.563279
vt 0.409182 0.625000
vt 0.436721 0.545975
vt 0.375000 0.590818
vt 0.425611 0.524170
vt 0.353054 0.547746
vt 0.421783 0.500000
vt 0.345492 0.500000
vt 0.425611 0.475829
vt 0.353054 0.452254
vt 0.436721 0.454025
vt 0.375000 0.409182
vt 0.454025 0.436721
vt 0.409182 0.375000
vt 0.475830 0.425611
vt 0.452254 0.353054
vt 0.500000 0.421783
vt 0.500000 0.345491
vt 0.524171 0.425611
vt 0.547746 0.353054
vt 0.545975 0.436721
vt 0.590818 0.375000
vt 0.563279 0.454025
vt 0.625000 0.409182
vt 0.574389 0.475829
vt 0.646946 0.452254
vt 0.578217 0.500000
vt 0.654509 0.500000
vt 0.683643 0.633424
vt 0.715886 0.570145
vt 0.633425 0.683643
vt 0.570145 0.715885
vt 0.500000 0.726995
vt 0.429855 0.715885
vt 0.366576 0.683643
vt 0.316357 0.633424
vt 0.284115 0.570145
vt 0.273005 0.500000
vt 0.284115 0.429855
vt 0.316357 0.366575
vt 0.366576 0.316357
vt 0.429855 0.284115
vt 0.500000 0.273005
vt 0.570145 0.284115
vt 0.633425 0.316357
vt 0.683643 0.366575
vt 0.715885 0.429855
vt 0.726995 0.500000
vt 0.737764 0.672746
vt 0.779509 0.590818
vt 0.672746 0.737764
vt 0.590818 0.779508
vt 0.500000 0.793893
vt 0.409182 0.779508
vt 0.327254 0.737764
vt 0.262236 0.672746
vt 0.220492 0.590818
vt 0.206107 0.500000
vt 0.220492 0.409182
vt 0.262236 0.327254
vt 0.327254 0.262236
vt 0.409182 0.220491
vt 0.500000 0.206107
vt 0.590818 0.220491
vt 0.672746 0.262236
vt 0.737764 0.327254
vt 0.779509 0.409182
vt 0.793893 0.500000
vt 0.786031 0.707813
vt 0.836250 0.609254
vt 0.707814 0.786031
vt 0.609254 0.836249
vt 0.500000 0.853553
vt 0.390746 0.836249
vt 0.292187 0.786031
vt 0.213969 0.707813
vt 0.163751 0.609254
vt 0.146447 0.500000
vt 0.163751 0.390746
vt 0.213969 0.292186
vt 0.292187 0.213969
vt 0.390746 0.163751
vt 0.500000 0.146447
vt 0.609254 0.163751
vt 0.707814 0.213969
vt 0.786031 0.292186
vt 0.836249 0.390746
vt 0.853554 0.500000
vt 0.827255 0.737764
vt 0.884711 0.625000
vt 0.737764 0.827254
vt 0.625000 0.884710
vt 0.500000 0.904508
vt 0.375000 0.884710
vt 0.262236 0.827254
vt 0.172746 0.737764
vt 0.115290 0.625000
vt 0.095492 0.500000
vt 0.115290 0.375000
vt 0.172746 0.262236
vt 0.262236 0.172746
vt 0.375000 0.115289
vt 0.500000 0.095491
vt 0.625000 0.115289
vt 0.737764 0.172746
vt 0.827254 0.262236
vt 0.884711 0.375000
vt 0.904509 0.500000
vt 0.860420 0.761860
vt 0.923699 0.637668
vt 0.761860 0.860420
vt 0.637668 0.923699
vt 0.500000 0.945503
vt 0.362332 0.923699
vt 0.238140 0.860420
vt 0.139580 0.761860
vt 0.076301 0.637668
vt 0.054497 0.500000
vt 0.076301 0.362332
vt 0.139580 0.238140
vt 0.238140 0.139580
vt 0.362332 0.076301
vt 0.500000 0.054497
vt 0.637668 0.076301
vt 0.761860 0.139580
vt 0.860420 0.238140
vt 0.923699 0.362332
vt 0.945503 0.500000
vt 0.884711 0.779508
vt 0.952255 0.646946
vt 0.779509 0.884710
vt 0.646946 0.952254
vt 0.500000 0.975528
vt 0.353054 0.952254
vt 0.220492 0.884710
vt 0.115290 0.779508
vt 0.047746 0.646946
vt 0.024472 0.500000
vt 0.047746 0.353054
vt 0.115290 0.220491
vt 0.220492 0.115289
vt 0.353054 0.047746
vt 0.500000 0.024472
vt 0.646946 0.047746
vt 0.779509 0.115289
vt 0.884711 0.220491
vt 0.952254 0.353054
vt 0.975528 0.500000
vt 0.899529 0.790274
vt 0.969674 0.652606
vt 0.790275 0.899528
vt 0.652606 0.969674
vt 0.500000 0.993844
vt 0.347394 0.969674
vt 0.209726 0.899528
vt 0.100472 0.790274
vt 0.030326 0.652606
vt 0.006156 0.500000
vt 0.030326 0.347394
vt 0.100472 0.209726
vt 0.209726 0.100472
vt 0.347394 0.030326
vt 0.500000 0.006156
vt 0.652606 0.030326
vt 0.790274 0.100472
vt 0.899528 0.209726
vt 0.969674 0.347394
vt 0.993844 0.500000
vt 0.904509 0.793893
vt 0.975529 0.654508
vt 0.793893 0.904509
vt 0.654509 0.975528
vt 0.500000 1.000000
vt 0.345492 0.975528
vt 0.206107 0.904508
vt 0.095492 0.793893
vt 0.024472 0.654508
vt 0.000000 0.500000
vt 0.024472 0.345491
vt 0.095492 0.206107
vt 0.206107 0.095491
vt 0.345492 0.024472
vt 0.500000 -0.000000
vt 0.654509 0.024472
vt 0.793893 0.095491
vt 0.904509 0.206107
vt 0.975528 0.345491
vt 1.000000 0.500000
vt 0.899529 0.790274
vt 0.969674 0.652606
vt 0.790275 0.899528
vt 0.652606 0.969674
vt 0.500000 0.993844
vt 0.347394 0.969674
vt 0.209726 0.899528
vt 0.100472 0.790274
vt 0.030326 0.652606
vt 0.006156 0.500000
vt 0.030326 0.347394
vt 0.100472 0.209726
vt 0.209726 0.100472
vt 0.347394 0.030326
vt 0.500000 0.006156
vt 0.652606 0.030326
vt 0.790274 0.100472
vt 0.899528 0.209726
vt 0.969674 0.347394
vt 0.993844 0.500000
vt 0.884711 0.779508
vt 0.952255 0.646946
vt 0.779509 0.884710
vt 0.646946 0.952254
vt 0.500000 0.975528
vt 0.353054 0.952254
vt 0.220492 0.884710
vt 0.115290 0.779508
vt 0.047746 0.646946
vt 0.024472 0.500000
vt 0.047746 0.353054
vt 0.115290 0.220491
vt 0.220492 0.115289
vt 0.353054 0.047746
vt 0.500000 0.024472
vt 0.646946 0.047746
vt 0.779509 0.115289
vt 0.884711 0.220491
vt 0.952254 0.353054
vt 0.975528 0.500000
vt 0.860420 0.761860
vt 0.923699 0.637668
vt 0.761860 0.860420
vt 0.637668 0.923699
vt 0.500000 0.945503
vt 0.362332 0.923699
vt 0.238140 0.860420
vt 0.139580 0.761860
vt 0.076301 0.637668
vt 0.054497 0.500000
vt 0.076301 0.362332
vt 0.139580 0.238140
vt 0.238140 0.139580
vt 0.362332 0.076301
vt 0.500000 0.054497
vt 0.637668 0.076301
vt 0.761860 0.139580
vt 0.860420 0.238140
vt 0.923699 0.362332
vt 0.945503 0.500000
vt 0.827255 0.737764
vt 0.884711 0.625000
vt 0.737764 0.827254
vt 0.625000 0.884710
vt 0.500000 0.904508
vt 0.375000 0.884710
vt 0.262236 0.827254
vt 0.172746 0.737764
vt 0.115290 0.625000
vt 0.095492 0.500000
vt 0.115290 0.375000
vt 0.172746 0.262236
vt 0.262236 0.172746
vt 0.375000 0.115289
vt 0.500000 0.095491
vt 0.625000 0.115289
vt 0.737764 0.172746
vt 0.827254 0.262236
vt 0.884711 0.375000
vt 0.904509 0.500000
vt 0.786031 0.707813
vt 0.836250 0.609254
vt 0.707814 0.786031
vt 0.609254 0.836249
vt 0.500000 0.853553
vt 0.390746 0.836249
vt 0.292187 0.786031
vt 0.213969 0.707813
vt 0.163751 0.609254
vt 0.146447 0.500000
vt 0.163751 0.390746
vt 0.213969 0.292186
vt 0.292187 0.213969
vt 0.390746 0.163751
vt 0.500000 0.146447
vt 0.609254 0.163751
vt 0.707814 0.213969
vt 0.786031 0.292186
vt 0.836249 0.390746
vt 0.853554 0.500000
vt 0.737764 0.672746
vt 0.779509 0.590818
vt 0.672746 0.737764
vt 0.590818 0.779508
vt 0.500000 0.793893
vt 0.409182 0.779508
vt 0.327254 0.737764
vt 0.262236 0.672746
vt 0.220492 0.590818
vt 0.206107 0.500000
vt 0.220492 0.409182
vt 0.262236 0.327254
vt 0.327254 0.262236
vt 0.409182 0.220491
vt 0.500000 0.206107
vt 0.590818 0.220491
vt 0.672746 0.262236
vt 0.737764 0.327254
vt 0.779509 0.409182
vt 0.793893 0.500000
vt 0.683643 0.633424
vt 0.715886 0.570145
vt 0.633425 0.683643
vt 0.570145 0.715885
vt 0.500000 0.726995
vt 0.429855 0.715885
vt 0.366576 0.683643
vt 0.316357 0.633424
vt 0.284115 0.570145
vt 0.273005 0.500000
vt 0.284115 0.429855
vt 0.316357 0.366575
vt 0.366576 0.316357
vt 0.429855 0.284115
vt 0.500000 0.273005
vt 0.570145 0.284115
vt 0.633425 0.316357
vt 0.683643 0.366575
vt 0.715885 0.429855
vt 0.726995 0.500000
vt 0.625000 0.590818
vt 0.646947 0.547746
vt 0.590818 0.625000
vt 0.547746 0.646946
vt 0.500000 0.654508
vt 0.452254 0.646946
vt 0.409182 0.625000
vt 0.375000 0.590818
vt 0.353054 0.547746
vt 0.345492 0.500000
vt 0.353054 0.452254
vt 0.375000 0.409182
vt 0.409182 0.375000
vt 0.452254 0.353054
vt 0.500000 0.345491
vt 0.547746 0.353054
vt 0.590818 0.375000
vt 0.625000 0.409182
vt 0.646946 0.452254
vt 0.654509 0.500000
vt 0.563279 0.545975
vt 0.574389 0.524170
vt 0.545975 0.563279
vt 0.524171 0.574389
vt 0.500000 0.578217
vt 0.475830 0.574389
vt 0.454025 0.563279
vt 0.436721 0.545975
vt 0.425611 0.524170
vt 0.421783 0.500000
vt 0.425611 0.475829
vt 0.436721 0.454025
vt 0.454025 0.436721
vt 0.475830 0.425611
vt 0.500000 0.421783
vt 0.524171 0.425611
vt 0.545975 0.436721
vt 0.563279 0.454025
vt 0.574389 0.475829
vt 0.578217 0.500000
vt 0.500000 0.500000
vt 0.500000 0.500000
vn 0.148756 -0.987692 -0.048334
vn 0.126539 -0.987692 -0.091936
vn 0.249965 -0.951071 -0.181610
vn 0.293852 -0.951071 -0.095478
vn 0.091936 -0.987692 -0.126539
vn 0.181610 -0.951071 -0.249965
vn 0.048334 -0.987692 -0.148755
vn 0.095478 -0.951071 -0.293851
vn -0.000000 -0.987692 -0.156411
vn -0.000000 -0.951071 -0.308974
vn -0.048334 -0.987692 -0.148755
vn -0.095478 -0.951070 -0.293852
vn -0.091936 -0.987692 -0.126539
vn -0.181610 -0.951070 -0.249965
vn -0.126539 -0.987692 -0.091936
vn -0.249965 -0.951071 -0.181610
vn -0.148755 -0.987692 -0.048334
vn -0.293852 -0.951070 -0.095478
vn -0.156411 -0.987692 0.000000
vn -0.308974 -0.951071 -0.000000
vn -0.148756 -0.987692 0.048334
vn -0.293852 -0.951070 0.095478
vn -0.126539 -0.987692 0.091935
vn -0.249965 -0.951071 0.181610
vn -0.091936 -0.987692 0.126539
vn -0.181610 -0.951071 0.249965
vn -0.048334 -0.987692 0.148755
vn -0.095478 -0.951071 0.293852
vn 0.000000 -0.987692 0.156410
vn 0.000000 -0.951071 0.308974
vn 0.048334 -0.987692 0.148755
vn 0.095478 -0.951071 0.293852
vn 0.091936 -0.987692 0.126539
vn 0.181610 -0.951071 0.249965
vn 0.126539 -0.987692 0.091936
vn 0.249965 -0.951070 0.181610
vn 0.148756 -0.987692 0.048334
vn 0.293852 -0.951071 0.095478
vn 0.156411 -0.987692 0.000000
vn 0.308974 -0.951071 0.000000
vn 0.367241 -0.891035 -0.266816
vn 0.431718 -0.891035 -0.140273
vn 0.266816 -0.891035 -0.367241
vn 0.140274 -0.891035 -0.431718
vn -0.000000 -0.891035 -0.453935
vn -0.140274 -0.891035 -0.431718
vn -0.266816 -0.891035 -0.367241
vn -0.367241 -0.891035 -0.266816
vn -0.431718 -0.891035 -0.140274
vn -0.453935 -0.891035 0.000000
vn -0.431718 -0.891035 0.140274
vn -0.367241 -0.891035 0.266816
vn -0.266816 -0.891035 0.367241
vn -0.140274 -0.891035 0.431718
vn 0.000000 -0.891035 0.453935
vn 0.140274 -0.891035 0.431718
vn 0.266816 -0.891035 0.367241
vn 0.367241 -0.891035 0.266817
vn 0.431718 -0.891035 0.140274
vn 0.453935 -0.891035 0.000000
vn 0.475480 -0.809060 -0.345457
vn 0.558961 -0.809060 -0.181617
vn 0.345457 -0.809060 -0.475481
vn 0.181617 -0.809060 -0.558961
vn -0.000000 -0.809060 -0.587726
vn -0.181618 -0.809060 -0.558961
vn -0.345457 -0.809060 -0.475481
vn -0.475481 -0.809060 -0.345457
vn -0.558961 -0.809060 -0.181617
vn -0.587726 -0.809060 0.000000
vn -0.558961 -0.809060 0.181618
vn -0.475481 -0.809060 0.345457
vn -0.345457 -0.809060 0.475481
vn -0.181617 -0.809060 0.558961
vn -0.000000 -0.809060 0.587726
vn 0.181617 -0.809060 0.558961
vn 0.345457 -0.809060 0.475481
vn 0.475481 -0.809060 0.345457
vn 0.558961 -0.809060 0.181617
vn 0.587726 -0.809060 0.000001
vn 0.572017 -0.707161 -0.415595
vn 0.672447 -0.707161 -0.218490
vn 0.415595 -0.707161 -0.572018
vn 0.218491 -0.707161 -0.672447
vn -0.000000 -0.707161 -0.707053
vn -0.218491 -0.707161 -0.672447
vn -0.415595 -0.707161 -0.572018
vn -0.572018 -0.707161 -0.415595
vn -0.672447 -0.707161 -0.218491
vn -0.707053 -0.707161 -0.000000
vn -0.672447 -0.707161 0.218491
vn -0.572018 -0.707161 0.415595
vn -0.415595 -0.707161 0.572018
vn -0.218491 -0.707161 0.672447
vn 0.000000 -0.707161 0.707053
vn 0.218491 -0.707161 0.672447
vn 0.415595 -0.707161 0.572018
vn 0.572018 -0.707161 0.415595
vn 0.672447 -0.707161 0.218491
vn 0.707053 -0.707161 0.000001
vn 0.654474 -0.587844 -0.475503
vn 0.769381 -0.587844 -0.249986
vn 0.475503 -0.587844 -0.654474
vn 0.249987 -0.587844 -0.769381
vn -0.000000 -0.587844 -0.808974
vn -0.249987 -0.587844 -0.769380
vn -0.475503 -0.587844 -0.654474
vn -0.654474 -0.587844 -0.475503
vn -0.769380 -0.587844 -0.249987
vn -0.808974 -0.587844 -0.000000
vn -0.769380 -0.587844 0.249987
vn -0.654474 -0.587844 0.475503
vn -0.475503 -0.587844 0.654474
vn -0.249987 -0.587844 0.769380
vn 0.000000 -0.587844 0.808974
vn 0.249987 -0.587844 0.769380
vn 0.475503 -0.587844 0.654474
vn 0.654474 -0.587844 0.475503
vn 0.769380 -0.587844 0.249987
vn 0.808975 -0.587844 0.000001
vn 0.720817 -0.454045 -0.523704
vn 0.847371 -0.454045 -0.275327
vn 0.523704 -0.454045 -0.720817
vn 0.275327 -0.454045 -0.847371
vn -0.000000 -0.454045 -0.890979
vn -0.275328 -0.454045 -0.847371
vn -0.523704 -0.454045 -0.720817
vn -0.720817 -0.454045 -0.523704
vn -0.847371 -0.454045 -0.275328
vn -0.890979 -0.454045 -0.000000
vn -0.847371 -0.454045 0.275328
vn -0.720817 -0.454045 0.523704
vn -0.523704 -0.454045 0.720817
vn -0.275328 -0.454045 0.847371
vn 0.000000 -0.454045 0.890979
vn 0.275328 -0.454045 0.847371
vn 0.523704 -0.454045 0.720817
vn 0.720817 -0.454045 0.523704
vn 0.847371 -0.454045 0.275327
vn 0.890979 -0.454045 0.000001
vn 0.769410 -0.309059 -0.559009
vn 0.904496 -0.309059 -0.293887
vn 0.559009 -0.309059 -0.769410
vn 0.293888 -0.309059 -0.904495
vn -0.000000 -0.309059 -0.951043
vn -0.293889 -0.309059 -0.904495
vn -0.559009 -0.309059 -0.769410
vn -0.769410 -0.309059 -0.559009
vn -0.904496 -0.309059 -0.293888
vn -0.951043 -0.309059 -0.000000
vn -0.904495 -0.309059 0.293888
vn -0.769410 -0.309059 0.559009
vn -0.559009 -0.309059 0.769410
vn -0.293888 -0.309059 0.904496
vn 0.000000 -0.309059 0.951043
vn 0.293889 -0.309059 0.904495
vn 0.559009 -0.309059 0.769410
vn 0.769410 -0.309059 0.559009
vn 0.904496 -0.309059 0.293888
vn 0.951043 -0.309059 0.000001
vn 0.799054 -0.156457 -0.580547
vn 0.939344 -0.156457 -0.305210
vn 0.580546 -0.156457 -0.799054
vn 0.305211 -0.156457 -0.939344
vn 0.000000 -0.156457 -0.987685
vn -0.305212 -0.156457 -0.939344
vn -0.580547 -0.156457 -0.799054
vn -0.799054 -0.156457 -0.580546
vn -0.939344 -0.156457 -0.305211
vn -0.987685 -0.156457 0.000000
vn -0.939344 -0.156457 0.305211
vn -0.799054 -0.156457 0.580547
vn -0.580546 -0.156457 0.799054
vn -0.305211 -0.156457 0.939344
vn 0.000000 -0.156457 0.987685
vn 0.305211 -0.156457 0.939344
vn 0.580547 -0.156457 0.799054
vn 0.799054 -0.156457 0.580547
vn 0.939344 -0.156457 0.305211
vn 0.987685 -0.156457 0.000001
vn 0.809017 0.000000 -0.587785
vn 0.951057 0.000000 -0.309016
vn 0.587785 -0.000000 -0.809017
vn 0.309017 -0.000000 -0.951057
vn 0.000000 0.000000 -1.000000
vn -0.309017 -0.000000 -0.951056
vn -0.587786 -0.000000 -0.809017
vn -0.809017 0.000000 -0.587785
vn -0.951057 0.000000 -0.309017
vn -1.000000 -0.000000 0.000000
vn -0.951057 -0.000000 0.309017
vn -0.809017 0.000000 0.587785
vn -0.587785 -0.000000 0.809017
vn -0.309017 -0.000000 0.951057
vn 0.000000 0.000000 1.000000
vn 0.309017 0.000000 0.951057
vn 0.587785 0.000000 0.809017
vn 0.809017 0.000000 0.587785
vn 0.951057 -0.000000 0.309017
vn 1.000000 -0.000000 0.000001
vn 0.799054 0.156457 -0.580547
vn 0.939344 0.156457 -0.305210
vn 0.580546 0.156457 -0.799054
vn 0.305211 0.156457 -0.939344
vn 0.000000 0.156457 -0.987685
vn -0.305212 0.156457 -0.939344
vn -0.580547 0.156457 -0.799054
vn -0.799054 0.156457 -0.580546
vn -0.939344 0.156457 -0.305211
vn -0.987685 0.156457 0.000000
vn -0.939344 0.156457 0.305211
vn -0.799054 0.156457 0.580547
vn -0.580546 0.156457 0.799054
vn -0.305211 0.156457 0.939344
vn 0.000000 0.156457 0.987685
vn 0.305211 0.156457 0.939344
vn 0.580547 0.156457 0.799054
vn 0.799054 0.156457 0.580547
vn 0.939344 0.156457 0.305211
vn 0.987685 0.156457 0.000001
vn 0.769410 0.309059 -0.559009
vn 0.904496 0.309059 -0.293887
vn 0.559009 0.309059 -0.769410
vn 0.293888 0.309059 -0.904495
vn -0.000000 0.309059 -0.951043
vn -0.293889 0.309059 -0.904495
vn -0.559009 0.309059 -0.769410
vn -0.769410 0.309059 -0.559009
vn -0.904496 0.309059 -0.293888
vn -0.951043 0.309059 -0.000000
vn -0.904495 0.309059 0.293888
vn -0.769410 0.309059 0.559009
vn -0.559009 0.309059 0.769410
vn -0.293888 0.309059 0.904496
vn 0.000000 0.309059 0.951043
vn 0.293888 0.309059 0.904495
vn 0.559009 0.309059 0.769410
vn 0.769410 0.309059 0.559009
vn 0.904496 0.309059 0.293888
vn 0.951043 0.309059 0.000001
vn 0.720817 0.454045 -0.523704
vn 0.847371 0.454045 -0.275327
vn 0.523704 0.454045 -0.720817
vn 0.275327 0.454045 -0.847371
vn -0.000000 0.454045 -0.890979
vn -0.275328 0.454045 -0.847371
vn -0.523704 0.454045 -0.720817
vn -0.720817 0.454045 -0.523704
vn -0.847371 0.454045 -0.275327
vn -0.890979 0.454045 -0.000000
vn -0.847371 0.454045 0.275328
vn -0.720817 0.454045 0.523704
vn -0.523704 0.454045 0.720817
vn -0.275328 0.454045 0.847371
vn 0.000000 0.454045 0.890979
vn 0.275328 0.454045 0.847371
vn 0.523704 0.454045 0.720817
vn 0.720817 0.454045 0.523704
vn 0.847371 0.454045 0.275327
vn 0.890979 0.454045 0.000001
vn 0.654474 0.587844 -0.475503
vn 0.769381 0.587844 -0.249986
vn 0.475503 0.587844 -0.654474
vn 0.249987 0.587844 -0.769381
vn -0.000000 0.587844 -0.808974
vn -0.249987 0.587844 -0.769380
vn -0.475503 0.587844 -0.654474
vn -0.654474 0.587844 -0.475503
vn -0.769380 0.587844 -0.249987
vn -0.808974 0.587844 -0.000000
vn -0.769380 0.587844 0.249987
vn -0.654474 0.587844 0.475503
vn -0.475503 0.587844 0.654474
vn -0.249987 0.587844 0.769380
vn 0.000000 0.587844 0.808974
vn 0.249987 0.587844 0.769380
vn 0.475503 0.587844 0.654474
vn 0.654474 0.587844 0.475503
vn 0.769381 0.587844 0.249987
vn 0.808975 0.587844 0.000001
vn 0.572017 0.707161 -0.415595
vn 0.672447 0.707161 -0.218491
vn 0.415595 0.707161 -0.572018
vn 0.218491 0.707161 -0.672447
vn -0.000000 0.707161 -0.707053
vn -0.218491 0.707161 -0.672447
vn -0.415595 0.707161 -0.572018
vn -0.572018 0.707161 -0.415595
vn -0.672447 0.707161 -0.218491
vn -0.707053 0.707161 0.000000
vn -0.672447 0.707161 0.218491
vn -0.572018 0.707161 0.415595
vn -0.415595 0.707161 0.572018
vn -0.218491 0.707161 0.672447
vn 0.000000 0.707161 0.707053
vn 0.218491 0.707161 0.672447
vn 0.415595 0.707161 0.572018
vn 0.572018 0.707161 0.415595
vn 0.672447 0.707161 0.218491
vn 0.707053 0.707161 0.000001
vn 0.475480 0.809060 -0.345457
vn 0.558961 0.809060 -0.181617
vn 0.345457 0.809060 -0.475481
vn 0.181617 0.809060 -0.558961
vn -0.000000 0.809060 -0.587726
vn -0.181618 0.809060 -0.558961
vn -0.345457 0.809060 -0.475481
vn -0.475481 0.809060 -0.345457
vn -0.558961 0.809060 -0.181617
vn -0.587726 0.809060 0.000000
vn -0.558961 0.809060 0.181618
vn -0.475481 0.809060 0.345457
vn -0.345457 0.809060 0.475481
vn -0.181617 0.809060 0.558961
vn -0.000000 0.809060 0.587726
vn 0.181617 0.809060 0.558961
vn 0.345457 0.809060 0.475481
vn 0.475481 0.809060 0.345457
vn 0.558961 0.809060 0.181617
vn 0.587726 0.809060 0.000001
vn 0.367241 0.891035 -0.266817
vn 0.431718 0.891035 -0.140273
vn 0.266816 0.891035 -0.367241
vn 0.140274 0.891035 -0.431718
vn -0.000000 0.891035 -0.453935
vn -0.140274 0.891035 -0.431718
vn -0.266816 0.891035 -0.367241
vn -0.367241 0.891035 -0.266816
vn -0.431718 0.891035 -0.140274
vn -0.453935 0.891035 0.000000
vn -0.431718 0.891035 0.140274
vn -0.367241 0.891035 0.266816
vn -0.266816 0.891035 0.367241
vn -0.140274 0.891035 0.431718
vn 0.000000 0.891035 0.453935
vn 0.140274 0.891035 0.431718
vn 0.266816 0.891035 0.367241
vn 0.367241 0.891035 0.266817
vn 0.431718 0.891035 0.140274
vn 0.453935 0.891035 0.000000
vn 0.249965 0.951071 -0.181611
vn 0.293852 0.951071 -0.095478
vn 0.181610 0.951071 -0.249965
vn 0.095478 0.951071 -0.293852
vn -0.000000 0.951071 -0.308974
vn -0.095478 0.951071 -0.293851
vn -0.181610 0.951071 -0.249965
vn -0.249965 0.951071 -0.181610
vn -0.293852 0.951071 -0.095478
vn -0.308974 0.951071 0.000000
vn -0.293852 0.951071 0.095479
vn -0.249965 0.951071 0.181610
vn -0.181610 0.951071 0.249965
vn -0.095478 0.951071 0.293852
vn 0.000000 0.951071 0.308974
vn 0.095478 0.951071 0.293852
vn 0.181610 0.951071 0.249965
vn 0.249965 0.951071 0.181610
vn 0.293852 0.951071 0.095478
vn 0.308974 0.951071 0.000000
vn 0.126539 0.987692 -0.091935
vn 0.148756 0.987692 -0.048333
vn 0.091936 0.987692 -0.126538
vn 0.048334 0.987692 -0.148756
vn -0.000000 0.987692 -0.156411
vn -0.048334 0.987692 -0.148755
vn -0.091936 0.987692 -0.126539
vn -0.126539 0.987692 -0.091935
vn -0.148755 0.987692 -0.048333
vn -0.156411 0.987692 0.000000
vn -0.148756 0.987692 0.048334
vn -0.126539 0.987692 0.091936
vn -0.091936 0.987692 0.126539
vn -0.048334 0.987692 0.148755
vn 0.000000 0.987692 0.156410
vn 0.048334 0.987692 0.148755
vn 0.091936 0.987692 0.126539
vn 0.126539 0.987692 0.091935
vn 0.148756 0.987692 0.048334
vn 0.156411 0.987692 0.000000
vn -0.000000 -1.000000 -0.000000
vn -0.000000 1.000000 0.000000
s 1
g pSphere1
usemtl blinn3SG
f 1/1/1 2/2/2 22/3/3 21/4/4
f 2/2/2 3/5/5 23/6/6 22/3/3
f 3/5/5 4/7/7 24/8/8 23/6/6
f 4/7/7 5/9/9 25/10/10 24/8/8
f 5/9/9 6/11/11 26/12/12 25/10/10
f 6/11/11 7/13/13 27/14/14 26/12/12
f 7/13/13 8/15/15 28/16/16 27/14/14
f 8/15/15 9/17/17 29/18/18 28/16/16
f 9/17/17 10/19/19 30/20/20 29/18/18
f 10/19/19 11/21/21 31/22/22 30/20/20
f 11/21/21 12/23/23 32/24/24 31/22/22
f 12/23/23 13/25/25 33/26/26 32/24/24
f 13/25/25 14/27/27 34/28/28 33/26/26
f 14/27/27 15/29/29 35/30/30 34/28/28
f 15/29/29 16/31/31 36/32/32 35/30/30
f 16/31/31 17/33/33 37/34/34 36/32/32
f 17/33/33 18/35/35 38/36/36 37/34/34
f 18/35/35 19/37/37 39/38/38 38/36/36
f 19/37/37 20/39/39 40/40/40 39/38/38
f 20/39/39 1/1/1 21/4/4 40/40/40
f 21/4/4 22/3/3 42/41/41 41/42/42
f 22/3/3 23/6/6 43/43/43 42/41/41
f 23/6/6 24/8/8 44/44/44 43/43/43
f 24/8/8 25/10/10 45/45/45 44/44/44
f 25/10/10 26/12/12 46/46/46 45/45/45
f 26/12/12 27/14/14 47/47/47 46/46/46
f 27/14/14 28/16/16 48/48/48 47/47/47
f 28/16/16 29/18/18 49/49/49 48/48/48
f 29/18/18 30/20/20 50/50/50 49/49/49
f 30/20/20 31/22/22 51/51/51 50/50/50
f 31/22/22 32/24/24 52/52/52 51/51/51
f 32/24/24 33/26/26 53/53/53 52/52/52
f 33/26/26 34/28/28 54/54/54 53/53/53
f 34/28/28 35/30/30 55/55/55 54/54/54
f 35/30/30 36/32/32 56/56/56 55/55/55
f 36/32/32 37/34/34 57/57/57 56/56/56
f 37/34/34 38/36/36 58/58/58 57/57/57
f 38/36/36 39/38/38 59/59/59 58/58/58
f 39/38/38 40/40/40 60/60/60 59/59/59
f 40/40/40 21/4/4 41/42/42 60/60/60
f 41/42/42 42/41/41 62/61/61 61/62/62
f 42/41/41 43/43/43 63/63/63 62/61/61
f 43/43/43 44/44/44 64/64/64 63/63/63
f 44/44/44 45/45/45 65/65/65 64/64/64
f 45/45/45 46/46/46 66/66/66 65/65/65
f 46/46/46 47/47/47 67/67/67 66/66/66
f 47/47/47 48/48/48 68/68/68 67/67/67
f 48/48/48 49/49/49 69/69/69 68/68/68
f 49/49/49 50/50/50 70/70/70 69/69/69
f 50/50/50 51/51/51 71/71/71 70/70/70
f 51/51/51 52/52/52 72/72/72 71/71/71
f 52/52/52 53/53/53 73/73/73 72/72/72
f 53/53/53 54/54/54 74/74/74 73/73/73
f 54/54/54 55/55/55 75/75/75 74/74/74
f 55/55/55 56/56/56 76/76/76 75/75/75
f 56/56/56 57/57/57 77/77/77 76/76/76
f 57/57/57 58/58/58 78/78/78 77/77/77
f 58/58/58 59/59/59 79/79/79 78/78/78
f 59/59/59 60/60/60 80/80/80 79/79/79
f 60/60/60 41/42/42 61/62/62 80/80/80
f 61/62/62 62/61/61 82/81/81 81/82/82
f 62/61/61 63/63/63 83/83/83 82/81/81
f 63/63/63 64/64/64 84/84/84 83/83/83
f 64/64/64 65/65/65 85/85/85 84/84/84
f 65/65/65 66/66/66 86/86/86 85/85/85
f 66/66/66 67/67/67 87/87/87 86/86/86
f 67/67/67 68/68/68 88/88/88 87/87/87
f 68/68/68 69/69/69 89/89/89 88/88/88
f 69/69/69 70/70/70 90/90/90 89/89/89
f 70/70/70 71/71/71 91/91/91 90/90/90
f 71/71/71 72/72/72 92/92/92 91/91/91
f 72/72/72 73/73/73 93/93/93 92/92/92
f 73/73/73 74/74/74 94/94/94 93/93/93
f 74/74/74 75/75/75 95/95/95 94/94/94
f 75/75/75 76/76/76 96/96/96 95/95/95
f 76/76/76 77/77/77 97/97/97 96/96/96
f 77/77/77 78/78/78 98/98/98 97/97/97
f 78/78/78 79/79/79 99/99/99 98/98/98
f 79/79/79 80/80/80 100/100/100 99/99/99
f 80/80/80 61/62/62 81/82/82 100/100/100
f 81/82/82 82/81/81 102/101/101 101/102/102
f 82/81/81 83/83/83 103/103/103 102/101/101
f 83/83/83 84/84/84 104/104/104 103/103/103
f 84/84/84 85/85/85 105/105/105 104/104/104
f 85/85/85 86/86/86 106/106/106 105/105/105
f 86/86/86 87/87/87 107/107/107 106/106/106
f 87/87/87 88/88/88 108/108/108 107/107/107
f 88/88/88 89/89/89 109/109/109 108/108/108
f 89/89/89 90/90/90 110/110/110 109/109/109
f 90/90/90 91/91/91 111/111/111 110/110/110
f 91/91/91 92/92/92 112/112/112 111/111/111
f 92/92/92 93/93/93 113/113/113 112/112/112
f 93/93/93 94/94/94 114/114/114 113/113/113
f 94/94/94 95/95/95 115/115/115 114/114/114
f 95/95/95 96/96/96 116/116/116 115/115/115
f 96/96/96 97/97/97 117/117/117 116/116/116
f 97/97/97 98/98/98 118/118/118 117/117/117
f 98/98/98 99/99/99 119/119/119 118/118/118
f 99/99/99 100/100/100 120/120/120 119/119/119
f 100/100/100 81/82/82 101/102/102 120/120/120
f 101/102/102 102/101/101 122/121/121 121/122/122
f 102/101/101 103/103/103 123/123/123 122/121/121
f 103/103/103 104/104/104 124/124/124 123/123/123
f 104/104/104 105/105/105 125/125/125 124/124/124
f 105/105/105 106/106/106 126/126/126 125/125/125
f 106/106/106 107/107/107 127/127/127 126/126/126
f 107/107/107 108/108/108 128/128/128 127/127/127
f 108/108/108 109/109/109 129/129/129 128/128/128
f 109/109/109 110/110/110 130/130/130 129/129/129
f 110/110/110 111/111/111 131/131/131 130/130/130
f 111/111/111 112/112/112 132/132/132 131/131/131
f 112/112/112 113/113/113 133/133/133 132/132/132
f 113/113/113 114/114/114 134/134/134 133/133/133
f 114/114/114 115/115/115 135/135/135 134/134/134
f 115/115/115 116/116/116 136/136/136 135/135/135
f 116/116/116 117/117/117 137/137/137 136/136/136
f 117/117/117 118/118/118 138/138/138 137/137/137
f 118/118/118 119/119/119 139/139/139 138/138/138
f 119/119/119 120/120/120 140/140/140 139/139/139
f 120/120/120 101/102/102 121/122/122 140/140/140
f 121/122/122 122/121/121 142/141/141 141/142/142
f 122/121/121 123/123/123 143/143/143 142/141/141
f 123/123/123 124/124/124 144/144/144 143/143/143
f 124/124/124 125/125/125 145/145/145 144/144/144
f 125/125/125 126/126/126 146/146/146 145/145/145
f 126/126/126 127/127/127 147/147/147 146/146/146
f 127/127/127 128/128/128 148/148/148 147/147/147
f 128/128/128 129/129/129 149/149/149 148/148/148
f 129/129/129 130/130/130 150/150/150 149/149/149
f 130/130/130 131/131/131 151/151/151 150/150/150
f 131/131/131 132/132/132 152/152/152 151/151/151
f 132/132/132 133/133/133 153/153/153 152/152/152
f 133/133/133 134/134/134 154/154/154 153/153/153
f 134/134/134 135/135/135 155/155/155 154/154/154
f 135/135/135 136/136/136 156/156/156 155/155/155
f 136/136/136 137/137/137 157/157/157 156/156/156
f 137/137/137 138/138/138 158/158/158 157/157/157
f 138/138/138 139/139/139 159/159/159 158/158/158
f 139/139/139 140/140/140 160/160/160 159/159/159
f 140/140/140 121/122/122 141/142/142 160/160/160
f 141/142/142 142/141/141 162/161/161 161/162/162
f 142/141/141 143/143/143 163/163/163 162/161/161
f 143/143/143 144/144/144 164/164/164 163/163/163
f 144/144/144 145/145/145 165/165/165 164/164/164
f 145/145/145 146/146/146 166/166/166 165/165/165
f 146/146/146 147/147/147 167/167/167 166/166/166
f 147/147/147 148/148/148 168/168/168 167/167/167
f 148/148/148 149/149/149 169/169/169 168/168/168
f 149/149/149 150/150/150 170/170/170 169/169/169
f 150/150/150 151/151/151 171/171/171 170/170/170
f 151/151/151 152/152/152 172/172/172 171/171/171
f 152/152/152 153/153/153 173/173/173 172/172/172
f 153/153/153 154/154/154 174/174/174 173/173/173
f 154/154/154 155/155/155 175/175/175 174/174/174
f 155/155/155 156/156/156 176/176/176 175/175/175
f 156/156/156 157/157/157 177/177/177 176/176/176
f 157/157/157 158/158/158 178/178/178 177/177/177
f 158/158/158 159/159/159 179/179/179 178/178/178
f 159/159/159 160/160/160 180/180/180 179/179/179
f 160/160/160 141/142/142 161/162/162 180/180/180
f 161/162/162 162/161/161 182/181/181 181/182/182
f 162/161/161 163/163/163 183/183/183 182/181/181
f 163/163/163 164/164/164 184/184/184 183/183/183
f 164/164/164 165/165/165 185/185/185 184/184/184
f 165/165/165 166/166/166 186/186/186 185/185/185
f 166/166/166 167/167/167 187/187/187 186/186/186
f 167/167/167 168/168/168 188/188/188 187/187/187
f 168/168/168 169/169/169 189/189/189 188/188/188
f 169/169/169 170/170/170 190/190/190 189/189/189
f 170/170/170 171/171/171 191/191/191 190/190/190
f 171/171/171 172/172/172 192/192/192 191/191/191
f 172/172/172 173/173/173 193/193/193 192/192/192
f 173/173/173 174/174/174 194/194/194 193/193/193
f 174/174/174 175/175/175 195/195/195 194/194/194
f 175/175/175 176/176/176 196/196/196 195/195/195
f 176/176/176 177/177/177 197/197/197 196/196/196
f 177/177/177 178/178/178 198/198/198 197/197/197
f 178/178/178 179/179/179 199/199/199 198/198/198
f 179/179/179 180/180/180 200/200/200 199/199/199
f 180/180/180 161/162/162 181/182/182 200/200/200
f 181/182/182 182/181/181 202/201/201 201/202/202
f 182/181/181 183/183/183 203/203/203 202/201/201
f 183/183/183 184/184/184 204/204/204 203/203/203
f 184/184/184 185/185/185 205/205/205 204/204/204
f 185/185/185 186/186/186 206/206/206 205/205/205
f 186/186/186 187/187/187 207/207/207 206/206/206
f 187/187/187 188/188/188 208/208/208 207/207/207
f 188/188/188 189/189/189 209/209/209 208/208/208
f 189/189/189 190/190/190 210/210/210 209/209/209
f 190/190/190 191/191/191 211/211/211 210/210/210
f 191/191/191 192/192/192 212/212/212 211/211/211
f 192/192/192 193/193/193 213/213/213 212/212/212
f 193/193/193 194/194/194 214/214/214 213/213/213
f 194/194/194 195/195/195 215/215/215 214/214/214
f 195/195/195 196/196/196 216/216/216 215/215/215
f 196/196/196 197/197/197 217/217/217 216/216/216
f 197/197/197 198/198/198 218/218/218 217/217/217
f 198/198/198 199/199/199 219/219/219 218/218/218
f 199/199/199 200/200/200 220/220/220 219/219/219
f 200/200/200 181/182/182 201/202/202 220/220/220
f 201/202/202 202/201/201 222/221/221 221/222/222
f 202/201/201 203/203/203 223/223/223 222/221/221
f 203/203/203 204/204/204 224/224/224 223/223/223
f 204/204/204 205/205/205 225/225/225 224/224/224
f 205/205/205 206/206/206 226/226/226 225/225/225
f 206/206/206 207/207/207 227/227/227 226/226/226
f 207/207/207 208/208/208 228/228/228 227/227/227
f 208/208/208 209/209/209 229/229/229 228/228/228
f 209/209/209 210/210/210 230/230/230 229/229/229
f 210/210/210 211/211/211 231/231/231 230/230/230
f 211/211/211 212/212/212 232/232/232 231/231/231
f 212/212/212 213/213/213 233/233/233 232/232/232
f 213/213/213 214/214/214 234/234/234 233/233/233
f 214/214/214 215/215/215 235/235/235 234/234/234
f 215/215/215 216/216/216 236/236/236 235/235/235
f 216/216/216 217/217/217 237/237/237 236/236/236
f 217/217/217 218/218/218 238/238/238 237/237/237
f 218/218/218 219/219/219 239/239/239 238/238/238
f 219/219/219 220/220/220 240/240/240 239/239/239
f 220/220/220 201/202/202 221/222/222 240/240/240
f 221/222/222 222/221/221 242/241/241 241/242/242
f 222/221/221 223/223/223 243/243/243 242/241/241
f 223/223/223 224/224/224 244/244/244 243/243/243
f 224/224/224 225/225/225 245/245/245 244/244/244
f 225/225/225 226/226/226 246/246/246 245/245/245
f 226/226/226 227/227/227 247/247/247 246/246/246
f 227/227/227 228/228/228 248/248/248 247/247/247
f 228/228/228 229/229/229 249/249/249 248/248/248
f 229/229/229 230/230/230 250/250/250 249/249/249
f 230/230/230 231/231/231 251/251/251 250/250/250
f 231/231/231 232/232/232 252/252/252 251/251/251
f 232/232/232 233/233/233 253/253/253 252/252/252
f 233/233/233 234/234/234 254/254/254 253/253/253
f 234/234/234 235/235/235 255/255/255 254/254/254
f 235/235/235 236/236/236 256/256/256 255/255/255
f 236/236/236 237/237/237 257/257/257 256/256/256
f 237/237/237 238/238/238 258/258/258 257/257/257
f 238/238/238 239/239/239 259/259/259 258/258/258
f 239/239/239 240/240/240 260/260/260 259/259/259
f 240/240/240 221/222/222 241/242/242 260/260/260
f 241/242/242 242/241/241 262/261/261 261/262/262
f 242/241/241 243/243/243 263/263/263 262/261/261
f 243/243/243 244/244/244 264/264/264 263/263/263
f 244/244/244 245/245/245 265/265/265 264/264/264
f 245/245/245 246/246/246 266/266/266 265/265/265
f 246/246/246 247/247/247 267/267/267 266/266/266
f 247/247/247 248/248/248 268/268/268 267/267/267
f 248/248/248 249/249/249 269/269/269 268/268/268
f 249/249/249 250/250/250 270/270/270 269/269/269
f 250/250/250 251/251/251 271/271/271 270/270/270
f 251/251/251 252/252/252 272/272/272 271/271/271
f 252/252/252 253/253/253 273/273/273 272/272/272
f 253/253/253 254/254/254 274/274/274 273/273/273
f 254/254/254 255/255/255 275/275/275 274/274/274
f 255/255/255 256/256/256 276/276/276 275/275/275
f 256/256/256 257/257/257 277/277/277 276/276/276
f 257/257/257 258/258/258 278/278/278 277/277/277
f 258/258/258 259/259/259 279/279/279 278/278/278
f 259/259/259 260/260/260 280/280/280 279/279/279
f 260/260/260 241/242/242 261/262/262 280/280/280
f 261/262/262 262/261/261 282/281/281 281/282/282
f 262/261/261 263/263/263 283/283/283 282/281/281
f 263/263/263 264/264/264 284/284/284 283/283/283
f 264/264/264 265/265/265 285/285/285 284/284/284
f 265/265/265 266/266/266 286/286/286 285/285/285
f 266/266/266 267/267/267 287/287/287 286/286/286
f 267/267/267 268/268/268 288/288/288 287/287/287
f 268/268/268 269/269/269 289/289/289 288/288/288
f 269/269/269 270/270/270 290/290/290 289/289/289
f 270/270/270 271/271/271 291/291/291 290/290/290
f 271/271/271 272/272/272 292/292/292 291/291/291
f 272/272/272 273/273/273 293/293/293 292/292/292
f 273/273/273 274/274/274 294/294/294 293/293/293
f 274/274/274 275/275/275 295/295/295 294/294/294
f 275/275/275 276/276/276 296/296/296 295/295/295
f 276/276/276 277/277/277 297/297/297 296/296/296
f 277/277/277 278/278/278 298/298/298 297/297/297
f 278/278/278 279/279/279 299/299/299 298/298/298
f 279/279/279 280/280/280 300/300/300 299/299/299
f 280/280/280 261/262/262 281/282/282 300/300/300
f 281/282/282 282/281/281 302/301/301 301/302/302
f 282/281/281 283/283/283 303/303/303 302/301/301
f 283/283/283 284/284/284 304/304/304 303/303/303
f 284/284/284 285/285/285 305/305/305 304/304/304
f 285/285/285 286/286/286 306/306/306 305/305/305
f 286/286/286 287/287/287 307/307/307 306/306/306
f 287/287/287 288/288/288 308/308/308 307/307/307
f 288/288/288 289/289/289 309/309/309 308/308/308
f 289/289/289 290/290/290 310/310/310 309/309/309
f 290/290/290 291/291/291 311/311/311 310/310/310
f 291/291/291 292/292/292 312/312/312 311/311/311
f 292/292/292 293/293/293 313/313/313 312/312/312
f 293/293/293 294/294/294 314/314/314 313/313/313
f 294/294/294 295/295/295 315/315/315 314/314/314
f 295/295/295 296/296/296 316/316/316 315/315/315
f 296/296/296 297/297/297 317/317/317 316/316/316
f 297/297/297 298/298/298 318/318/318 317/317/317
f 298/298/298 299/299/299 319/319/319 318/318/318
f 299/299/299 300/300/300 320/320/320 319/319/319
f 300/300/300 281/282/282 301/302/302 320/320/320
f 301/302/302 302/301/301 322/321/321 321/322/322
f 302/301/301 303/303/303 323/323/323 322/321/321
f 303/303/303 304/304/304 324/324/324 323/323/323
f 304/304/304 305/305/305 325/325/325 324/324/324
f 305/305/305 306/306/306 326/326/326 325/325/325
f 306/306/306 307/307/307 327/327/327 326/326/326
f 307/307/307 308/308/308 328/328/328 327/327/327
f 308/308/308 309/309/309 329/329/329 328/328/328
f 309/309/309 310/310/310 330/330/330 329/329/329
f 310/310/310 311/311/311 331/331/331 330/330/330
f 311/311/311 312/312/312 332/332/332 331/331/331
f 312/312/312 313/313/313 333/333/333 332/332/332
f 313/313/313 314/314/314 334/334/334 333/333/333
f 314/314/314 315/315/315 335/335/335 334/334/334
f 315/315/315 316/316/316 336/336/336 335/335/335
f 316/316/316 317/317/317 337/337/337 336/336/336
f 317/317/317 318/318/318 338/338/338 337/337/337
f 318/318/318 319/319/319 339/339/339 338/338/338
f 319/319/319 320/320/320 340/340/340 339/339/339
f 320/320/320 301/302/302 321/322/322 340/340/340
f 321/322/322 322/321/321 342/341/341 341/342/342
f 322/321/321 323/323/323 343/343/343 342/341/341
f 323/323/323 324/324/324 344/344/344 343/343/343
f 324/324/324 325/325/325 345/345/345 344/344/344
f 325/325/325 326/326/326 346/346/346 345/345/345
f 326/326/326 327/327/327 347/347/347 346/346/346
f 327/327/327 328/328/328 348/348/348 347/347/347
f 328/328/328 329/329/329 349/349/349 348/348/348
f 329/329/329 330/330/330 350/350/350 349/349/349
f 330/330/330 331/331/331 351/351/351 350/350/350
f 331/331/331 332/332/332 352/352/352 351/351/351
f 332/332/332 333/333/333 353/353/353 352/352/352
f 333/333/333 334/334/334 354/354/354 353/353/353
f 334/334/334 335/335/335 355/355/355 354/354/354
f 335/335/335 336/336/336 356/356/356 355/355/355
f 336/336/336 337/337/337 357/357/357 356/356/356
f 337/337/337 338/338/338 358/358/358 357/357/357
f 338/338/338 339/339/339 359/359/359 358/358/358
f 339/339/339 340/340/340 360/360/360 359/359/359
f 340/340/340 321/322/322 341/342/342 360/360/360
f 341/342/342 342/341/341 362/361/361 361/362/362
f 342/341/341 343/343/343 363/363/363 362/361/361
f 343/343/343 344/344/344 364/364/364 363/363/363
f 344/344/344 345/345/345 365/365/365 364/364/364
f 345/345/345 346/346/346 366/366/366 365/365/365
f 346/346/346 347/347/347 367/367/367 366/366/366
f 347/347/347 348/348/348 368/368/368 367/367/367
f 348/348/348 349/349/349 369/369/369 368/368/368
f 349/349/349 350/350/350 370/370/370 369/369/369
f 350/350/350 351/351/351 371/371/371 370/370/370
f 351/351/351 352/352/352 372/372/372 371/371/371
f 352/352/352 353/353/353 373/373/373 372/372/372
f 353/353/353 354/354/354 374/374/374 373/373/373
f 354/354/354 355/355/355 375/375/375 374/374/374
f 355/355/355 356/356/356 376/376/376 375/375/375
f 356/356/356 357/357/357 377/377/377 376/376/376
f 357/357/357 358/358/358 378/378/378 377/377/377
f 358/358/358 359/359/359 379/379/379 378/378/378
f 359/359/359 360/360/360 380/380/380 379/379/379
f 360/360/360 341/342/342 361/362/362 380/380/380
f 2/2/2 1/1/1 381/381/381
f 3/5/5 2/2/2 381/381/381
f 4/7/7 3/5/5 381/381/381
f 5/9/9 4/7/7 381/381/381
f 6/11/11 5/9/9 381/381/381
f 7/13/13 6/11/11 381/381/381
f 8/15/15 7/13/13 381/381/381
f 9/17/17 8/15/15 381/381/381
f 10/19/19 9/17/17 381/381/381
f 11/21/21 10/19/19 381/381/381
f 12/23/23 11/21/21 381/381/381
f 13/25/25 12/23/23 381/381/381
f 14/27/27 13/25/25 381/381/381
f 15/29/29 14/27/27 381/381/381
f 16/31/31 15/29/29 381/381/381
f 17/33/33 16/31/31 381/381/381
f 18/35/35 17/33/33 381/381/381
f 19/37/37 18/35/35 381/381/381
f 20/39/39 19/37/37 381/381/381
f 1/1/1 20/39/39 381/381/381
f 361/362/362 362/361/361 382/382/382
f 362/361/361 363/363/363 382/382/382
f 363/363/363 364/364/364 382/382/382
f 364/364/364 365/365/365 382/382/382
f 365/365/365 366/366/366 382/382/382
f 366/366/366 367/367/367 382/382/382
f 367/367/367 368/368/368 382/382/382
f 368/368/368 369/369/369 382/382/382
f 369/369/369 370/370/370 382/382/382
f 370/370/370 371/371/371 382/382/382
f 371/371/371 372/372/372 382/382/382
f 372/372/372 373/373/373 382/382/382
f 373/373/373 374/374/374 382/382/382
f 374/374/374 375/375/375 382/382/382
f 375/375/375 376/376/376 382/382/382
f 376/376/376 377/377/377 382/382/382
f 377/377/377 378/378/378 382/382/382
f 378/378/378 379/379/379 382/382/382
f 379/379/379 380/380/380 382/382/382
f 380/380/380 361/362/362 382/382/382
