
material playmobilmCamiseta
{
	technique
	{
		pass
		{
			ambient 0 0 0 1
			diffuse 0.033333 0.694676 0.033333 1
			specular 1 1 1 1 127.9
		}

	}

}



material playmobilmPiel
{
	technique
	{
		pass
		{
			ambient 0 0 0 1
			diffuse 1 0.853773 0.627359 1
			specular 1 1 1 1 127.521
		}

	}

}



material playmobilmPantalones
{
	technique
	{
		pass
		{
			ambient 0 0 0 1
			diffuse 0 0 0.8 1
			specular 0 0 0 1 2.56
		}

	}

}



material playmobilmZapatos
{
	technique
	{
		pass
		{
			ambient 0 0 0 1
			diffuse 0.576 0.346208 0.156672 1
			specular 0 0 0 1 127.521
		}

	}

}



material playmobilmCara
{
	technique
	{
		pass
		{
			ambient 0 0 0 1
			diffuse 1 0.86722 0.663901 1
			specular 1 1 1 1 127.521
		}

	}

}



material playmobilmPelo
{
	technique
	{
		pass
		{
			ambient 0 0 0 1
			diffuse 0.8 0.8 0 1
			specular 0 0 0 1 2.56
		}

	}

}


